module github.com/nextmetaphor/yaml-graph

go 1.15

require (
	github.com/awesome-gocui/gocui v0.6.0
	github.com/neo4j/neo4j-go-driver v1.8.3
	github.com/rs/zerolog v1.20.0
	github.com/spf13/cobra v1.1.1
	github.com/stretchr/testify v1.6.1
	github.com/yuin/goldmark v1.4.0
	gopkg.in/yaml.v2 v2.2.8
)
